# MagicaVoxel @ Ephtracy

# group
o 

# material
mtllib chr_sword_no_weapon.mtl
usemtl palette

# normals
vn -1 0 0
vn 1 0 0
vn 0 0 1
vn 0 0 -1
vn 0 -1 0
vn 0 1 0

# texcoords
vt 0.00195313 0.5
vt 0.0332031 0.5
vt 0.0371094 0.5
vt 0.166016 0.5
vt 0.634766 0.5
vt 0.638672 0.5
vt 0.962891 0.5
vt 0.978516 0.5
vt 0.994141 0.5

# verts
v 0 1.5 -0.3
v 0 1.5 -0.4
v 0 1.6 -0.3
v 0 1.6 -0.4
v 0.1 2 -0.3
v 0.1 2 -0.4
v 0.1 2.1 -0.3
v 0.1 2.1 -0.4
v 0.2 1.8 -0.3
v 0.2 1.8 -0.4
v 0.2 1.8 -0.5
v 0.2 1.8 -0.7
v 0.2 1.9 -0.3
v 0.2 1.9 -0.4
v 0.2 1.9 -0.5
v 0.2 1.9 -0.6
v 0.2 1.9 -0.7
v 0.2 2 -0.2
v 0.2 2 -0.3
v 0.2 2 -0.4
v 0.2 2 -0.5
v 0.2 2 -0.6
v 0.2 2.1 -0.2
v 0.2 2.1 -0.3
v 0.2 2.1 -0.4
v 0.2 2.1 -0.5
v 0.2 2.2 -0.3
v 0.2 2.2 -0.4
v 0.3 1.5 -0.4
v 0.3 1.5 -0.5
v 0.3 1.6 -0.1
v 0.3 1.6 -0.3
v 0.3 1.6 -0.4
v 0.3 1.6 -0.5
v 0.3 1.6 -0.6
v 0.3 1.7 -0.1
v 0.3 1.7 -0.3
v 0.3 1.7 -0.6
v 0.3 1.8 -0.2
v 0.3 1.8 -0.3
v 0.3 1.8 -0.4
v 0.3 1.8 -0.5
v 0.3 1.8 -0.6
v 0.3 1.9 -0.1
v 0.3 1.9 -0.2
v 0.3 1.9 -0.3
v 0.3 1.9 -0.4
v 0.3 1.9 -0.5
v 0.3 2 -0.2
v 0.3 2 -0.3
v 0.3 2 -0.5
v 0.3 2 -0.6
v 0.3 2.1 -0.1
v 0.3 2.1 -0.2
v 0.3 2.1 -0.3
v 0.3 2.1 -0.4
v 0.3 2.1 -0.5
v 0.3 2.2 -0.2
v 0.3 2.2 -0.3
v 0.3 2.2 -0.4
v 0.3 2.2 -0.5
v 0.3 2.2 -0.6
v 0.3 2.3 -0.3
v 0.3 2.3 -0.5
v 0.4 1 -0.3
v 0.4 1 -0.4
v 0.4 1.1 -0.3
v 0.4 1.1 -0.4
v 0.4 1.2 -0.2
v 0.4 1.2 -0.3
v 0.4 1.2 -0.4
v 0.4 1.2 -0.5
v 0.4 1.3 -0.2
v 0.4 1.3 -0.5
v 0.4 1.4 -0.2
v 0.4 1.4 -0.5
v 0.4 1.5 -0.3
v 0.4 1.5 -0.4
v 0.4 1.5 -0.5
v 0.4 1.6 -0.2
v 0.4 1.6 -0.3
v 0.4 1.7 -0.2
v 0.4 1.7 -0.3
v 0.4 1.7 -0.6
v 0.4 1.7 -0.7
v 0.4 1.8 -0.2
v 0.4 1.8 -0.3
v 0.4 2 0
v 0.4 2 -0.1
v 0.4 2.1 0
v 0.4 2.1 -0.1
v 0.4 2.1 -0.2
v 0.4 2.2 -0.1
v 0.4 2.2 -0.2
v 0.4 2.2 -0.3
v 0.4 2.2 -0.5
v 0.4 2.2 -0.6
v 0.4 2.2 -0.7
v 0.4 2.3 -0.2
v 0.4 2.3 -0.3
v 0.4 2.3 -0.5
v 0.4 2.3 -0.6
v 0.4 2.4 -0.3
v 0.4 2.4 -0.5
v 0.5 1.8 -0.7
v 0.5 1.8 -0.8
v 0.5 2.1 -0.7
v 0.5 2.1 -0.8
v 0.6 1.9 -0.1
v 0.6 1.9 -0.2
v 0.6 2 -0.1
v 0.6 2 -0.2
v 0.7 1 -0.3
v 0.7 1 -0.4
v 0.7 1.1 -0.3
v 0.7 1.1 -0.4
v 0.7 1.2 -0.3
v 0.7 1.2 -0.4
v 0.8 1.9 -0.1
v 0.8 1.9 -0.2
v 0.8 2 -0.1
v 0.8 2 -0.2
v 0.9 1.8 -0.6
v 0.9 1.8 -0.7
v 0.9 1.9 -0.6
v 0.9 1.9 -0.7
v 0.9 2.1 -0.1
v 0.9 2.1 -0.2
v 0.9 2.2 -0.1
v 0.9 2.2 -0.2
v 0.3 1.8 -0.6
v 0.3 1.8 -0.7
v 0.3 1.9 -0.6
v 0.3 1.9 -0.7
v 0.4 1.9 -0.1
v 0.4 1.9 -0.2
v 0.4 2 -0.1
v 0.4 2 -0.2
v 0.5 1 -0.3
v 0.5 1 -0.4
v 0.5 1.1 -0.3
v 0.5 1.1 -0.4
v 0.5 1.2 -0.3
v 0.5 1.2 -0.4
v 0.7 1.8 -0.7
v 0.7 1.8 -0.8
v 0.7 1.9 -0.1
v 0.7 1.9 -0.2
v 0.7 2 -0.1
v 0.7 2 -0.2
v 0.7 2.1 -0.7
v 0.7 2.1 -0.8
v 0.8 1 -0.3
v 0.8 1 -0.4
v 0.8 1.1 -0.3
v 0.8 1.1 -0.4
v 0.8 1.2 -0.2
v 0.8 1.2 -0.3
v 0.8 1.2 -0.4
v 0.8 1.2 -0.5
v 0.8 1.3 -0.2
v 0.8 1.3 -0.5
v 0.8 1.4 -0.2
v 0.8 1.4 -0.5
v 0.8 1.5 -0.3
v 0.8 1.5 -0.4
v 0.8 1.5 -0.5
v 0.8 1.6 -0.2
v 0.8 1.6 -0.3
v 0.8 1.7 -0.2
v 0.8 1.7 -0.3
v 0.8 1.7 -0.6
v 0.8 1.7 -0.7
v 0.8 1.8 -0.2
v 0.8 1.8 -0.3
v 0.8 2 0
v 0.8 2 -0.1
v 0.8 2.1 0
v 0.8 2.1 -0.1
v 0.8 2.1 -0.2
v 0.8 2.2 -0.1
v 0.8 2.2 -0.2
v 0.8 2.2 -0.3
v 0.8 2.2 -0.5
v 0.8 2.2 -0.6
v 0.8 2.2 -0.7
v 0.8 2.3 -0.2
v 0.8 2.3 -0.3
v 0.8 2.3 -0.5
v 0.8 2.3 -0.6
v 0.8 2.4 -0.3
v 0.8 2.4 -0.5
v 0.9 1.5 -0.4
v 0.9 1.5 -0.5
v 0.9 1.6 -0.1
v 0.9 1.6 -0.3
v 0.9 1.6 -0.4
v 0.9 1.6 -0.5
v 0.9 1.6 -0.6
v 0.9 1.7 -0.1
v 0.9 1.7 -0.3
v 0.9 1.7 -0.6
v 0.9 1.8 -0.2
v 0.9 1.8 -0.3
v 0.9 1.8 -0.4
v 0.9 1.8 -0.5
v 0.9 1.8 -0.6
v 0.9 1.9 -0.1
v 0.9 1.9 -0.2
v 0.9 1.9 -0.3
v 0.9 1.9 -0.4
v 0.9 1.9 -0.5
v 0.9 2 -0.2
v 0.9 2 -0.3
v 0.9 2 -0.5
v 0.9 2 -0.6
v 0.9 2.1 -0.1
v 0.9 2.1 -0.2
v 0.9 2.1 -0.3
v 0.9 2.2 -0.2
v 0.9 2.2 -0.3
v 0.9 2.2 -0.5
v 0.9 2.2 -0.6
v 0.9 2.3 -0.3
v 0.9 2.3 -0.5
v 1 1.8 -0.3
v 1 1.8 -0.4
v 1 1.8 -0.5
v 1 1.8 -0.7
v 1 1.9 -0.3
v 1 1.9 -0.4
v 1 1.9 -0.5
v 1 1.9 -0.6
v 1 1.9 -0.7
v 1 2 -0.2
v 1 2 -0.3
v 1 2 -0.4
v 1 2 -0.5
v 1 2 -0.6
v 1 2.1 -0.1
v 1 2.1 -0.2
v 1 2.1 -0.3
v 1 2.1 -0.4
v 1 2.2 -0.1
v 1 2.2 -0.2
v 1 2.2 -0.3
v 1 2.2 -0.5
v 1.1 2 -0.3
v 1.1 2 -0.4
v 1.1 2.1 -0.3
v 1.1 2.1 -0.4
v 1.2 1.5 -0.3
v 1.2 1.5 -0.4
v 1.2 1.6 -0.3
v 1.2 1.6 -0.4
v 0.4 2 0
v 0.4 2.1 0
v 0.8 2 0
v 0.8 2.1 0
v 0.3 1.6 -0.1
v 0.3 1.7 -0.1
v 0.3 1.9 -0.1
v 0.3 2.1 -0.1
v 0.4 1.9 -0.1
v 0.4 2 -0.1
v 0.4 2.1 -0.1
v 0.4 2.2 -0.1
v 0.5 1.6 -0.1
v 0.5 1.7 -0.1
v 0.6 1.9 -0.1
v 0.6 2 -0.1
v 0.7 1.6 -0.1
v 0.7 1.7 -0.1
v 0.7 1.9 -0.1
v 0.7 2 -0.1
v 0.8 1.9 -0.1
v 0.8 2 -0.1
v 0.8 2.1 -0.1
v 0.8 2.2 -0.1
v 0.9 1.6 -0.1
v 0.9 1.7 -0.1
v 0.9 1.9 -0.1
v 0.9 2.1 -0.1
v 0.9 2.2 -0.1
v 1 2.1 -0.1
v 1 2.2 -0.1
v 0.2 2 -0.2
v 0.2 2.1 -0.2
v 0.3 1.8 -0.2
v 0.3 1.9 -0.2
v 0.3 2 -0.2
v 0.3 2.1 -0.2
v 0.3 2.2 -0.2
v 0.4 1.2 -0.2
v 0.4 1.3 -0.2
v 0.4 1.4 -0.2
v 0.4 1.6 -0.2
v 0.4 1.7 -0.2
v 0.4 1.8 -0.2
v 0.4 1.9 -0.2
v 0.4 2 -0.2
v 0.4 2.1 -0.2
v 0.4 2.2 -0.2
v 0.4 2.3 -0.2
v 0.5 1.6 -0.2
v 0.5 1.7 -0.2
v 0.5 1.8 -0.2
v 0.5 1.9 -0.2
v 0.6 1.3 -0.2
v 0.6 1.4 -0.2
v 0.6 1.9 -0.2
v 0.6 2 -0.2
v 0.7 1.3 -0.2
v 0.7 1.4 -0.2
v 0.7 1.6 -0.2
v 0.7 1.7 -0.2
v 0.7 1.8 -0.2
v 0.7 1.9 -0.2
v 0.7 2 -0.2
v 0.8 1.2 -0.2
v 0.8 1.3 -0.2
v 0.8 1.4 -0.2
v 0.8 1.6 -0.2
v 0.8 1.7 -0.2
v 0.8 1.8 -0.2
v 0.8 1.9 -0.2
v 0.8 2 -0.2
v 0.8 2.1 -0.2
v 0.8 2.2 -0.2
v 0.8 2.3 -0.2
v 0.9 1.8 -0.2
v 0.9 1.9 -0.2
v 0.9 2 -0.2
v 0.9 2.1 -0.2
v 0.9 2.2 -0.2
v 1 2 -0.2
v 1 2.1 -0.2
v 0 1.5 -0.3
v 0 1.6 -0.3
v 0.1 1.5 -0.3
v 0.1 1.6 -0.3
v 0.1 2 -0.3
v 0.1 2.1 -0.3
v 0.2 1.5 -0.3
v 0.2 1.6 -0.3
v 0.2 1.8 -0.3
v 0.2 1.9 -0.3
v 0.2 2 -0.3
v 0.2 2.1 -0.3
v 0.2 2.2 -0.3
v 0.3 1.5 -0.3
v 0.3 1.6 -0.3
v 0.3 1.7 -0.3
v 0.3 1.8 -0.3
v 0.3 1.9 -0.3
v 0.3 2 -0.3
v 0.3 2.1 -0.3
v 0.3 2.2 -0.3
v 0.3 2.3 -0.3
v 0.4 1 -0.3
v 0.4 1.1 -0.3
v 0.4 1.2 -0.3
v 0.4 1.5 -0.3
v 0.4 1.6 -0.3
v 0.4 1.7 -0.3
v 0.4 1.8 -0.3
v 0.4 2.2 -0.3
v 0.4 2.3 -0.3
v 0.4 2.4 -0.3
v 0.5 1 -0.3
v 0.5 1.1 -0.3
v 0.5 1.2 -0.3
v 0.7 1 -0.3
v 0.7 1.1 -0.3
v 0.7 1.2 -0.3
v 0.8 1 -0.3
v 0.8 1.1 -0.3
v 0.8 1.2 -0.3
v 0.8 1.5 -0.3
v 0.8 1.6 -0.3
v 0.8 1.7 -0.3
v 0.8 1.8 -0.3
v 0.8 2.2 -0.3
v 0.8 2.3 -0.3
v 0.8 2.4 -0.3
v 0.9 1.5 -0.3
v 0.9 1.6 -0.3
v 0.9 1.7 -0.3
v 0.9 1.8 -0.3
v 0.9 1.9 -0.3
v 0.9 2 -0.3
v 0.9 2.1 -0.3
v 0.9 2.2 -0.3
v 0.9 2.3 -0.3
v 1 1.5 -0.3
v 1 1.6 -0.3
v 1 1.8 -0.3
v 1 1.9 -0.3
v 1 2 -0.3
v 1 2.1 -0.3
v 1 2.2 -0.3
v 1.1 1.5 -0.3
v 1.1 1.6 -0.3
v 1.1 2 -0.3
v 1.1 2.1 -0.3
v 1.2 1.5 -0.3
v 1.2 1.6 -0.3
v 0.2 1.8 -0.5
v 0.2 1.9 -0.5
v 0.3 1.8 -0.5
v 0.3 1.9 -0.5
v 0.9 1.8 -0.5
v 0.9 1.9 -0.5
v 1 1.8 -0.5
v 1 1.9 -0.5
v 0.9 2.1 -0.2
v 0.9 2.2 -0.2
v 1 2.1 -0.2
v 1 2.2 -0.2
v 0 1.5 -0.4
v 0 1.6 -0.4
v 0.1 1.5 -0.4
v 0.1 1.6 -0.4
v 0.1 2 -0.4
v 0.1 2.1 -0.4
v 0.2 1.5 -0.4
v 0.2 1.6 -0.4
v 0.2 1.8 -0.4
v 0.2 1.9 -0.4
v 0.2 2 -0.4
v 0.2 2.1 -0.4
v 0.2 2.2 -0.4
v 0.3 1.5 -0.4
v 0.3 1.6 -0.4
v 0.3 1.8 -0.4
v 0.3 1.9 -0.4
v 0.3 2.1 -0.4
v 0.3 2.2 -0.4
v 0.4 1 -0.4
v 0.4 1.1 -0.4
v 0.4 1.2 -0.4
v 0.5 1 -0.4
v 0.5 1.1 -0.4
v 0.5 1.2 -0.4
v 0.7 1 -0.4
v 0.7 1.1 -0.4
v 0.7 1.2 -0.4
v 0.8 1 -0.4
v 0.8 1.1 -0.4
v 0.8 1.2 -0.4
v 0.9 1.5 -0.4
v 0.9 1.6 -0.4
v 0.9 1.8 -0.4
v 0.9 1.9 -0.4
v 1 1.5 -0.4
v 1 1.6 -0.4
v 1 1.8 -0.4
v 1 1.9 -0.4
v 1 2 -0.4
v 1 2.1 -0.4
v 1.1 1.5 -0.4
v 1.1 1.6 -0.4
v 1.1 2 -0.4
v 1.1 2.1 -0.4
v 1.2 1.5 -0.4
v 1.2 1.6 -0.4
v 0.2 2 -0.5
v 0.2 2.1 -0.5
v 0.3 1.5 -0.5
v 0.3 1.6 -0.5
v 0.3 2 -0.5
v 0.3 2.1 -0.5
v 0.3 2.2 -0.5
v 0.3 2.3 -0.5
v 0.4 1.2 -0.5
v 0.4 1.3 -0.5
v 0.4 1.4 -0.5
v 0.4 1.5 -0.5
v 0.4 1.6 -0.5
v 0.4 2.2 -0.5
v 0.4 2.3 -0.5
v 0.4 2.4 -0.5
v 0.8 1.2 -0.5
v 0.8 1.3 -0.5
v 0.8 1.4 -0.5
v 0.8 1.5 -0.5
v 0.8 1.6 -0.5
v 0.8 2.2 -0.5
v 0.8 2.3 -0.5
v 0.8 2.4 -0.5
v 0.9 1.5 -0.5
v 0.9 1.6 -0.5
v 0.9 2 -0.5
v 0.9 2.2 -0.5
v 0.9 2.3 -0.5
v 1 2 -0.5
v 1 2.2 -0.5
v 0.2 1.9 -0.6
v 0.2 2 -0.6
v 0.3 1.6 -0.6
v 0.3 1.7 -0.6
v 0.3 1.8 -0.6
v 0.3 1.9 -0.6
v 0.3 2 -0.6
v 0.3 2.2 -0.6
v 0.4 1.7 -0.6
v 0.4 2.2 -0.6
v 0.4 2.3 -0.6
v 0.8 1.7 -0.6
v 0.8 2.2 -0.6
v 0.8 2.3 -0.6
v 0.9 1.6 -0.6
v 0.9 1.7 -0.6
v 0.9 1.8 -0.6
v 0.9 1.9 -0.6
v 0.9 2 -0.6
v 0.9 2.2 -0.6
v 1 1.9 -0.6
v 1 2 -0.6
v 0.2 1.8 -0.7
v 0.2 1.9 -0.7
v 0.3 1.8 -0.7
v 0.3 1.9 -0.7
v 0.4 1.7 -0.7
v 0.4 2.2 -0.7
v 0.5 1.8 -0.7
v 0.5 2.1 -0.7
v 0.7 1.8 -0.7
v 0.7 2.1 -0.7
v 0.8 1.7 -0.7
v 0.8 2.2 -0.7
v 0.9 1.8 -0.7
v 0.9 1.9 -0.7
v 1 1.8 -0.7
v 1 1.9 -0.7
v 0.5 1.8 -0.8
v 0.5 2.1 -0.8
v 0.7 1.8 -0.8
v 0.7 2.1 -0.8
v 0.4 1 -0.3
v 0.5 1 -0.3
v 0.7 1 -0.3
v 0.8 1 -0.3
v 0.4 1 -0.4
v 0.5 1 -0.4
v 0.7 1 -0.4
v 0.8 1 -0.4
v 0.4 1.2 -0.2
v 0.8 1.2 -0.2
v 0.4 1.2 -0.3
v 0.5 1.2 -0.3
v 0.7 1.2 -0.3
v 0.8 1.2 -0.3
v 0.4 1.2 -0.4
v 0.5 1.2 -0.4
v 0.7 1.2 -0.4
v 0.8 1.2 -0.4
v 0.4 1.2 -0.5
v 0.8 1.2 -0.5
v 0 1.5 -0.3
v 0.1 1.5 -0.3
v 0.2 1.5 -0.3
v 0.3 1.5 -0.3
v 0.4 1.5 -0.3
v 0.8 1.5 -0.3
v 0.9 1.5 -0.3
v 1 1.5 -0.3
v 1.1 1.5 -0.3
v 1.2 1.5 -0.3
v 0 1.5 -0.4
v 0.1 1.5 -0.4
v 0.2 1.5 -0.4
v 0.3 1.5 -0.4
v 0.4 1.5 -0.4
v 0.8 1.5 -0.4
v 0.9 1.5 -0.4
v 1 1.5 -0.4
v 1.1 1.5 -0.4
v 1.2 1.5 -0.4
v 0.3 1.5 -0.5
v 0.4 1.5 -0.5
v 0.8 1.5 -0.5
v 0.9 1.5 -0.5
v 0.3 1.6 -0.1
v 0.5 1.6 -0.1
v 0.7 1.6 -0.1
v 0.9 1.6 -0.1
v 0.4 1.6 -0.2
v 0.5 1.6 -0.2
v 0.7 1.6 -0.2
v 0.8 1.6 -0.2
v 0.3 1.6 -0.3
v 0.4 1.6 -0.3
v 0.8 1.6 -0.3
v 0.9 1.6 -0.3
v 0.3 1.6 -0.5
v 0.4 1.6 -0.5
v 0.8 1.6 -0.5
v 0.9 1.6 -0.5
v 0.3 1.6 -0.6
v 0.9 1.6 -0.6
v 0.4 1.7 -0.6
v 0.8 1.7 -0.6
v 0.4 1.7 -0.7
v 0.8 1.7 -0.7
v 0.3 1.8 -0.2
v 0.4 1.8 -0.2
v 0.8 1.8 -0.2
v 0.9 1.8 -0.2
v 0.2 1.8 -0.3
v 0.3 1.8 -0.3
v 0.4 1.8 -0.3
v 0.8 1.8 -0.3
v 0.9 1.8 -0.3
v 1 1.8 -0.3
v 0.2 1.8 -0.4
v 0.3 1.8 -0.4
v 0.9 1.8 -0.4
v 1 1.8 -0.4
v 0.2 1.8 -0.5
v 0.3 1.8 -0.5
v 0.9 1.8 -0.5
v 1 1.8 -0.5
v 0.3 1.8 -0.6
v 0.9 1.8 -0.6
v 0.2 1.8 -0.7
v 0.3 1.8 -0.7
v 0.5 1.8 -0.7
v 0.7 1.8 -0.7
v 0.9 1.8 -0.7
v 1 1.8 -0.7
v 0.5 1.8 -0.8
v 0.7 1.8 -0.8
v 0.3 1.9 -0.1
v 0.4 1.9 -0.1
v 0.6 1.9 -0.1
v 0.7 1.9 -0.1
v 0.8 1.9 -0.1
v 0.9 1.9 -0.1
v 0.3 1.9 -0.2
v 0.4 1.9 -0.2
v 0.6 1.9 -0.2
v 0.7 1.9 -0.2
v 0.8 1.9 -0.2
v 0.9 1.9 -0.2
v 0.2 1.9 -0.4
v 0.3 1.9 -0.4
v 0.9 1.9 -0.4
v 1 1.9 -0.4
v 0.2 1.9 -0.5
v 0.3 1.9 -0.5
v 0.9 1.9 -0.5
v 1 1.9 -0.5
v 0.4 2 0
v 0.8 2 0
v 0.4 2 -0.1
v 0.6 2 -0.1
v 0.7 2 -0.1
v 0.8 2 -0.1
v 0.2 2 -0.2
v 0.3 2 -0.2
v 0.4 2 -0.2
v 0.6 2 -0.2
v 0.7 2 -0.2
v 0.8 2 -0.2
v 0.9 2 -0.2
v 1 2 -0.2
v 0.1 2 -0.3
v 0.2 2 -0.3
v 0.3 2 -0.3
v 0.9 2 -0.3
v 1 2 -0.3
v 1.1 2 -0.3
v 0.1 2 -0.4
v 0.2 2 -0.4
v 1 2 -0.4
v 1.1 2 -0.4
v 0.9 2.1 -0.1
v 1 2.1 -0.1
v 0.9 2.1 -0.2
v 1 2.1 -0.2
v 0 1.6 -0.3
v 0.1 1.6 -0.3
v 0.2 1.6 -0.3
v 0.3 1.6 -0.3
v 0.9 1.6 -0.3
v 1 1.6 -0.3
v 1.1 1.6 -0.3
v 1.2 1.6 -0.3
v 0 1.6 -0.4
v 0.1 1.6 -0.4
v 0.2 1.6 -0.4
v 0.3 1.6 -0.4
v 0.9 1.6 -0.4
v 1 1.6 -0.4
v 1.1 1.6 -0.4
v 1.2 1.6 -0.4
v 0.3 1.7 -0.1
v 0.5 1.7 -0.1
v 0.7 1.7 -0.1
v 0.9 1.7 -0.1
v 0.4 1.7 -0.2
v 0.5 1.7 -0.2
v 0.7 1.7 -0.2
v 0.8 1.7 -0.2
v 0.3 1.7 -0.3
v 0.4 1.7 -0.3
v 0.8 1.7 -0.3
v 0.9 1.7 -0.3
v 0.2 1.9 -0.6
v 0.3 1.9 -0.6
v 0.9 1.9 -0.6
v 1 1.9 -0.6
v 0.2 1.9 -0.7
v 0.3 1.9 -0.7
v 0.9 1.9 -0.7
v 1 1.9 -0.7
v 0.2 2 -0.5
v 0.3 2 -0.5
v 0.9 2 -0.5
v 1 2 -0.5
v 0.2 2 -0.6
v 0.3 2 -0.6
v 0.9 2 -0.6
v 1 2 -0.6
v 0.4 2.1 0
v 0.8 2.1 0
v 0.3 2.1 -0.1
v 0.4 2.1 -0.1
v 0.8 2.1 -0.1
v 0.9 2.1 -0.1
v 0.2 2.1 -0.2
v 0.3 2.1 -0.2
v 0.4 2.1 -0.2
v 0.8 2.1 -0.2
v 0.9 2.1 -0.2
v 1 2.1 -0.2
v 0.1 2.1 -0.3
v 0.2 2.1 -0.3
v 0.3 2.1 -0.3
v 0.9 2.1 -0.3
v 1 2.1 -0.3
v 1.1 2.1 -0.3
v 0.1 2.1 -0.4
v 0.2 2.1 -0.4
v 0.3 2.1 -0.4
v 1 2.1 -0.4
v 1.1 2.1 -0.4
v 0.2 2.1 -0.5
v 0.3 2.1 -0.5
v 0.5 2.1 -0.7
v 0.7 2.1 -0.7
v 0.5 2.1 -0.8
v 0.7 2.1 -0.8
v 0.4 2.2 -0.1
v 0.8 2.2 -0.1
v 0.9 2.2 -0.1
v 1 2.2 -0.1
v 0.3 2.2 -0.2
v 0.4 2.2 -0.2
v 0.8 2.2 -0.2
v 0.9 2.2 -0.2
v 1 2.2 -0.2
v 0.2 2.2 -0.3
v 0.3 2.2 -0.3
v 0.4 2.2 -0.3
v 0.8 2.2 -0.3
v 0.9 2.2 -0.3
v 1 2.2 -0.3
v 0.2 2.2 -0.4
v 0.3 2.2 -0.4
v 0.3 2.2 -0.5
v 0.4 2.2 -0.5
v 0.8 2.2 -0.5
v 0.9 2.2 -0.5
v 1 2.2 -0.5
v 0.3 2.2 -0.6
v 0.4 2.2 -0.6
v 0.8 2.2 -0.6
v 0.9 2.2 -0.6
v 0.4 2.2 -0.7
v 0.8 2.2 -0.7
v 0.4 2.3 -0.2
v 0.8 2.3 -0.2
v 0.3 2.3 -0.3
v 0.4 2.3 -0.3
v 0.8 2.3 -0.3
v 0.9 2.3 -0.3
v 0.3 2.3 -0.5
v 0.4 2.3 -0.5
v 0.8 2.3 -0.5
v 0.9 2.3 -0.5
v 0.4 2.3 -0.6
v 0.8 2.3 -0.6
v 0.4 2.4 -0.3
v 0.8 2.4 -0.3
v 0.4 2.4 -0.5
v 0.8 2.4 -0.5

# faces
f 3/2/1 2/2/1 1/2/1
f 4/2/1 2/2/1 3/2/1
f 7/5/1 6/5/1 5/5/1
f 8/5/1 6/5/1 7/5/1
f 13/2/1 10/2/1 9/2/1
f 14/2/1 10/2/1 13/2/1
f 15/5/1 12/5/1 11/5/1
f 16/5/1 12/5/1 15/5/1
f 17/5/1 12/5/1 16/5/1
f 19/5/1 14/5/1 13/5/1
f 19/5/1 15/5/1 14/5/1
f 19/5/1 16/5/1 15/5/1
f 20/5/1 16/5/1 19/5/1
f 21/5/1 16/5/1 20/5/1
f 22/5/1 16/5/1 21/5/1
f 23/5/1 19/5/1 18/5/1
f 24/5/1 19/5/1 23/5/1
f 25/5/1 21/5/1 20/5/1
f 26/5/1 21/5/1 25/5/1
f 27/5/1 25/5/1 24/5/1
f 28/5/1 25/5/1 27/5/1
f 33/1/1 30/1/1 29/1/1
f 34/1/1 30/1/1 33/1/1
f 36/1/1 32/1/1 31/1/1
f 36/1/1 35/1/1 34/1/1
f 36/1/1 34/1/1 33/1/1
f 36/1/1 33/1/1 32/1/1
f 37/1/1 35/1/1 36/1/1
f 38/1/1 35/1/1 37/1/1
f 40/5/1 38/5/1 37/5/1
f 41/5/1 38/5/1 40/5/1
f 42/5/1 38/5/1 41/5/1
f 43/5/1 38/5/1 42/5/1
f 45/5/1 40/5/1 39/5/1
f 46/5/1 40/5/1 45/5/1
f 47/5/1 42/5/1 41/5/1
f 48/5/1 42/5/1 47/5/1
f 49/5/1 46/5/1 45/5/1
f 49/5/1 45/5/1 44/5/1
f 50/5/1 46/5/1 49/5/1
f 53/5/1 49/5/1 44/5/1
f 54/5/1 49/5/1 53/5/1
f 57/5/1 52/5/1 51/5/1
f 58/5/1 55/5/1 54/5/1
f 59/5/1 55/5/1 58/5/1
f 60/5/1 57/5/1 56/5/1
f 61/5/1 52/5/1 57/5/1
f 61/5/1 57/5/1 60/5/1
f 62/5/1 52/5/1 61/5/1
f 63/5/1 60/5/1 59/5/1
f 63/5/1 61/5/1 60/5/1
f 64/5/1 61/5/1 63/5/1
f 67/6/1 66/6/1 65/6/1
f 68/6/1 66/6/1 67/6/1
f 70/7/1 68/7/1 67/7/1
f 71/7/1 68/7/1 70/7/1
f 73/4/1 71/4/1 70/4/1
f 73/4/1 72/4/1 71/4/1
f 73/4/1 70/4/1 69/4/1
f 74/4/1 72/4/1 73/4/1
f 75/8/1 74/8/1 73/8/1
f 76/8/1 74/8/1 75/8/1
f 77/4/1 76/4/1 75/4/1
f 78/4/1 76/4/1 77/4/1
f 79/4/1 76/4/1 78/4/1
f 80/4/1 77/4/1 75/4/1
f 81/4/1 77/4/1 80/4/1
f 86/2/1 83/2/1 82/2/1
f 87/2/1 83/2/1 86/2/1
f 90/5/1 89/5/1 88/5/1
f 91/5/1 89/5/1 90/5/1
f 93/5/1 92/5/1 91/5/1
f 94/5/1 92/5/1 93/5/1
f 97/5/1 85/5/1 84/5/1
f 98/5/1 85/5/1 97/5/1
f 99/5/1 95/5/1 94/5/1
f 100/5/1 95/5/1 99/5/1
f 101/5/1 97/5/1 96/5/1
f 102/5/1 97/5/1 101/5/1
f 103/5/1 101/5/1 100/5/1
f 104/5/1 101/5/1 103/5/1
f 107/5/1 106/5/1 105/5/1
f 108/5/1 106/5/1 107/5/1
f 111/5/1 110/5/1 109/5/1
f 112/5/1 110/5/1 111/5/1
f 115/6/1 114/6/1 113/6/1
f 116/6/1 114/6/1 115/6/1
f 117/7/1 116/7/1 115/7/1
f 118/7/1 116/7/1 117/7/1
f 121/5/1 120/5/1 119/5/1
f 122/5/1 120/5/1 121/5/1
f 125/5/1 124/5/1 123/5/1
f 126/5/1 124/5/1 125/5/1
f 129/5/1 128/5/1 127/5/1
f 130/5/1 128/5/1 129/5/1
f 131/5/2 132/5/2 133/5/2
f 133/5/2 132/5/2 134/5/2
f 135/5/2 136/5/2 137/5/2
f 137/5/2 136/5/2 138/5/2
f 139/6/2 140/6/2 141/6/2
f 141/6/2 140/6/2 142/6/2
f 141/7/2 142/7/2 143/7/2
f 143/7/2 142/7/2 144/7/2
f 147/5/2 148/5/2 149/5/2
f 149/5/2 148/5/2 150/5/2
f 145/5/2 146/5/2 151/5/2
f 151/5/2 146/5/2 152/5/2
f 153/6/2 154/6/2 155/6/2
f 155/6/2 154/6/2 156/6/2
f 155/7/2 156/7/2 158/7/2
f 158/7/2 156/7/2 159/7/2
f 158/4/2 159/4/2 161/4/2
f 159/4/2 160/4/2 161/4/2
f 157/4/2 158/4/2 161/4/2
f 161/4/2 160/4/2 162/4/2
f 161/8/2 162/8/2 163/8/2
f 163/8/2 162/8/2 164/8/2
f 163/4/2 164/4/2 165/4/2
f 165/4/2 164/4/2 166/4/2
f 166/4/2 164/4/2 167/4/2
f 163/4/2 165/4/2 168/4/2
f 168/4/2 165/4/2 169/4/2
f 170/2/2 171/2/2 174/2/2
f 174/2/2 171/2/2 175/2/2
f 176/5/2 177/5/2 178/5/2
f 178/5/2 177/5/2 179/5/2
f 179/5/2 180/5/2 181/5/2
f 181/5/2 180/5/2 182/5/2
f 172/5/2 173/5/2 185/5/2
f 185/5/2 173/5/2 186/5/2
f 182/5/2 183/5/2 187/5/2
f 187/5/2 183/5/2 188/5/2
f 184/5/2 185/5/2 189/5/2
f 189/5/2 185/5/2 190/5/2
f 188/5/2 189/5/2 191/5/2
f 191/5/2 189/5/2 192/5/2
f 193/1/2 194/1/2 197/1/2
f 197/1/2 194/1/2 198/1/2
f 195/1/2 196/1/2 200/1/2
f 198/1/2 199/1/2 200/1/2
f 197/1/2 198/1/2 200/1/2
f 196/1/2 197/1/2 200/1/2
f 200/1/2 199/1/2 201/1/2
f 201/1/2 199/1/2 202/1/2
f 201/5/2 202/5/2 204/5/2
f 204/5/2 202/5/2 205/5/2
f 205/5/2 202/5/2 206/5/2
f 206/5/2 202/5/2 207/5/2
f 203/5/2 204/5/2 209/5/2
f 209/5/2 204/5/2 210/5/2
f 205/5/2 206/5/2 211/5/2
f 211/5/2 206/5/2 212/5/2
f 209/5/2 210/5/2 213/5/2
f 208/5/2 209/5/2 213/5/2
f 213/5/2 210/5/2 214/5/2
f 208/5/2 213/5/2 217/5/2
f 217/5/2 213/5/2 218/5/2
f 218/5/2 219/5/2 220/5/2
f 220/5/2 219/5/2 221/5/2
f 215/5/2 216/5/2 222/5/2
f 222/5/2 216/5/2 223/5/2
f 221/5/2 222/5/2 224/5/2
f 224/5/2 222/5/2 225/5/2
f 226/2/2 227/2/2 230/2/2
f 230/2/2 227/2/2 231/2/2
f 228/5/2 229/5/2 232/5/2
f 232/5/2 229/5/2 233/5/2
f 233/5/2 229/5/2 234/5/2
f 230/5/2 231/5/2 236/5/2
f 231/5/2 232/5/2 236/5/2
f 232/5/2 233/5/2 236/5/2
f 236/5/2 233/5/2 237/5/2
f 237/5/2 233/5/2 238/5/2
f 238/5/2 233/5/2 239/5/2
f 235/5/2 236/5/2 241/5/2
f 241/5/2 236/5/2 242/5/2
f 237/5/2 238/5/2 243/5/2
f 240/5/2 241/5/2 244/5/2
f 244/5/2 241/5/2 245/5/2
f 242/5/2 243/5/2 246/5/2
f 243/5/2 238/5/2 247/5/2
f 246/5/2 243/5/2 247/5/2
f 248/5/2 249/5/2 250/5/2
f 250/5/2 249/5/2 251/5/2
f 252/2/2 253/2/2 254/2/2
f 254/2/2 253/2/2 255/2/2
f 258/5/3 257/5/3 256/5/3
f 259/5/3 257/5/3 258/5/3
f 264/5/3 263/5/3 262/5/3
f 265/5/3 263/5/3 264/5/3
f 266/5/3 263/5/3 265/5/3
f 268/1/3 261/1/3 260/1/3
f 269/1/3 261/1/3 268/1/3
f 272/3/3 269/3/3 268/3/3
f 273/3/3 269/3/3 272/3/3
f 274/5/3 271/5/3 270/5/3
f 275/5/3 271/5/3 274/5/3
f 278/5/3 267/5/3 266/5/3
f 279/5/3 267/5/3 278/5/3
f 280/1/3 273/1/3 272/1/3
f 281/1/3 273/1/3 280/1/3
f 282/5/3 277/5/3 276/5/3
f 282/5/3 278/5/3 277/5/3
f 283/5/3 278/5/3 282/5/3
f 285/5/3 284/5/3 283/5/3
f 286/5/3 284/5/3 285/5/3
f 291/5/3 288/5/3 287/5/3
f 292/5/3 288/5/3 291/5/3
f 299/5/3 290/5/3 289/5/3
f 300/5/3 290/5/3 299/5/3
f 302/5/3 293/5/3 292/5/3
f 303/5/3 293/5/3 302/5/3
f 305/4/3 297/4/3 296/4/3
f 306/2/3 299/2/3 298/2/3
f 307/9/3 300/9/3 299/9/3
f 307/2/3 299/2/3 306/2/3
f 308/5/3 301/5/3 300/5/3
f 308/9/3 300/9/3 307/9/3
f 309/4/3 295/4/3 294/4/3
f 309/8/3 296/8/3 295/8/3
f 310/4/3 305/4/3 296/4/3
f 310/8/3 296/8/3 309/8/3
f 311/2/3 307/2/3 306/2/3
f 311/5/3 301/5/3 308/5/3
f 311/2/3 308/2/3 307/2/3
f 312/5/3 301/5/3 311/5/3
f 313/1/3 310/1/3 309/1/3
f 313/4/3 309/4/3 294/4/3
f 314/4/3 305/4/3 310/4/3
f 314/1/3 310/1/3 313/1/3
f 315/4/3 305/4/3 314/4/3
f 316/2/3 311/2/3 306/2/3
f 317/2/3 311/2/3 316/2/3
f 318/2/3 311/2/3 317/2/3
f 320/4/3 313/4/3 294/4/3
f 321/8/3 314/8/3 313/8/3
f 321/4/3 313/4/3 320/4/3
f 322/4/3 315/4/3 314/4/3
f 322/8/3 314/8/3 321/8/3
f 323/4/3 315/4/3 322/4/3
f 324/2/3 317/2/3 316/2/3
f 325/9/3 318/9/3 317/9/3
f 325/2/3 317/2/3 324/2/3
f 326/5/3 319/5/3 318/5/3
f 326/9/3 318/9/3 325/9/3
f 327/5/3 319/5/3 326/5/3
f 329/5/3 304/5/3 303/5/3
f 330/5/3 304/5/3 329/5/3
f 331/5/3 326/5/3 325/5/3
f 332/5/3 326/5/3 331/5/3
f 334/5/3 329/5/3 328/5/3
f 335/5/3 329/5/3 334/5/3
f 336/5/3 334/5/3 333/5/3
f 337/5/3 334/5/3 336/5/3
f 340/2/3 339/2/3 338/2/3
f 341/2/3 339/2/3 340/2/3
f 344/1/3 341/1/3 340/1/3
f 345/1/3 341/1/3 344/1/3
f 348/5/3 343/5/3 342/5/3
f 349/5/3 343/5/3 348/5/3
f 351/8/3 345/8/3 344/8/3
f 352/8/3 345/8/3 351/8/3
f 354/2/3 347/2/3 346/2/3
f 355/5/3 348/5/3 347/5/3
f 355/2/3 347/2/3 354/2/3
f 356/5/3 348/5/3 355/5/3
f 357/5/3 350/5/3 349/5/3
f 358/5/3 350/5/3 357/5/3
f 363/3/3 352/3/3 351/3/3
f 364/3/3 352/3/3 363/3/3
f 365/5/3 354/5/3 353/5/3
f 366/5/3 354/5/3 365/5/3
f 367/5/3 359/5/3 358/5/3
f 368/5/3 359/5/3 367/5/3
f 370/6/3 361/6/3 360/6/3
f 371/7/3 362/7/3 361/7/3
f 371/6/3 361/6/3 370/6/3
f 372/7/3 362/7/3 371/7/3
f 376/6/3 374/6/3 373/6/3
f 377/7/3 375/7/3 374/7/3
f 377/6/3 374/6/3 376/6/3
f 378/7/3 375/7/3 377/7/3
f 384/5/3 369/5/3 368/5/3
f 385/5/3 369/5/3 384/5/3
f 386/3/3 380/3/3 379/3/3
f 387/3/3 380/3/3 386/3/3
f 388/5/3 382/5/3 381/5/3
f 389/5/3 382/5/3 388/5/3
f 393/5/3 384/5/3 383/5/3
f 394/5/3 384/5/3 393/5/3
f 395/8/3 387/8/3 386/8/3
f 396/8/3 387/8/3 395/8/3
f 397/2/3 390/2/3 389/2/3
f 398/5/3 391/5/3 390/5/3
f 398/2/3 390/2/3 397/2/3
f 399/5/3 391/5/3 398/5/3
f 400/5/3 393/5/3 392/5/3
f 401/5/3 393/5/3 400/5/3
f 402/1/3 396/1/3 395/1/3
f 403/1/3 396/1/3 402/1/3
f 404/5/3 400/5/3 399/5/3
f 405/5/3 400/5/3 404/5/3
f 406/2/3 403/2/3 402/2/3
f 407/2/3 403/2/3 406/2/3
f 410/5/3 409/5/3 408/5/3
f 411/5/3 409/5/3 410/5/3
f 414/5/3 413/5/3 412/5/3
f 415/5/3 413/5/3 414/5/3
f 416/5/4 417/5/4 418/5/4
f 418/5/4 417/5/4 419/5/4
f 420/2/4 421/2/4 422/2/4
f 422/2/4 421/2/4 423/2/4
f 422/1/4 423/1/4 426/1/4
f 426/1/4 423/1/4 427/1/4
f 424/5/4 425/5/4 430/5/4
f 430/5/4 425/5/4 431/5/4
f 426/8/4 427/8/4 433/8/4
f 433/8/4 427/8/4 434/8/4
f 428/2/4 429/2/4 435/2/4
f 435/2/4 429/2/4 436/2/4
f 431/5/4 432/5/4 437/5/4
f 437/5/4 432/5/4 438/5/4
f 439/6/4 440/6/4 442/6/4
f 440/7/4 441/7/4 443/7/4
f 442/6/4 440/6/4 443/6/4
f 443/7/4 441/7/4 444/7/4
f 445/6/4 446/6/4 448/6/4
f 446/7/4 447/7/4 449/7/4
f 448/6/4 446/6/4 449/6/4
f 449/7/4 447/7/4 450/7/4
f 451/8/4 452/8/4 455/8/4
f 455/8/4 452/8/4 456/8/4
f 453/2/4 454/2/4 457/2/4
f 457/2/4 454/2/4 458/2/4
f 455/1/4 456/1/4 461/1/4
f 461/1/4 456/1/4 462/1/4
f 459/5/4 460/5/4 463/5/4
f 463/5/4 460/5/4 464/5/4
f 461/2/4 462/2/4 465/2/4
f 465/2/4 462/2/4 466/2/4
f 467/5/4 468/5/4 471/5/4
f 471/5/4 468/5/4 472/5/4
f 469/1/4 470/1/4 478/1/4
f 478/1/4 470/1/4 479/1/4
f 473/5/4 474/5/4 480/5/4
f 480/5/4 474/5/4 481/5/4
f 475/4/4 476/4/4 483/4/4
f 476/8/4 477/8/4 484/8/4
f 483/4/4 476/4/4 484/4/4
f 478/4/4 479/4/4 485/4/4
f 484/8/4 477/8/4 485/8/4
f 477/4/4 478/4/4 485/4/4
f 485/4/4 479/4/4 486/4/4
f 486/4/4 479/4/4 487/4/4
f 481/5/4 482/5/4 489/5/4
f 489/5/4 482/5/4 490/5/4
f 486/1/4 487/1/4 491/1/4
f 491/1/4 487/1/4 492/1/4
f 488/5/4 489/5/4 494/5/4
f 494/5/4 489/5/4 495/5/4
f 493/5/4 494/5/4 496/5/4
f 496/5/4 494/5/4 497/5/4
f 498/5/4 499/5/4 503/5/4
f 503/5/4 499/5/4 504/5/4
f 501/5/4 502/5/4 506/5/4
f 504/5/4 505/5/4 506/5/4
f 503/5/4 504/5/4 506/5/4
f 502/5/4 503/5/4 506/5/4
f 500/1/4 501/1/4 506/1/4
f 506/5/4 505/5/4 507/5/4
f 500/1/4 506/1/4 509/1/4
f 507/5/4 508/5/4 510/5/4
f 510/5/4 508/5/4 511/5/4
f 500/1/4 509/1/4 512/1/4
f 509/5/4 510/5/4 513/5/4
f 512/1/4 509/1/4 513/1/4
f 513/5/4 510/5/4 514/5/4
f 514/5/4 510/5/4 515/5/4
f 515/5/4 510/5/4 516/5/4
f 516/5/4 510/5/4 517/5/4
f 515/5/4 516/5/4 518/5/4
f 518/5/4 516/5/4 519/5/4
f 520/5/4 521/5/4 522/5/4
f 522/5/4 521/5/4 523/5/4
f 524/5/4 525/5/4 526/5/4
f 526/5/4 525/5/4 527/5/4
f 524/5/4 526/5/4 528/5/4
f 527/5/4 525/5/4 529/5/4
f 524/5/4 528/5/4 530/5/4
f 528/5/4 529/5/4 530/5/4
f 529/5/4 525/5/4 531/5/4
f 530/5/4 529/5/4 531/5/4
f 532/5/4 533/5/4 534/5/4
f 534/5/4 533/5/4 535/5/4
f 536/5/4 537/5/4 538/5/4
f 538/5/4 537/5/4 539/5/4
f 544/6/5 541/6/5 540/6/5
f 545/6/5 541/6/5 544/6/5
f 546/6/5 543/6/5 542/6/5
f 547/6/5 543/6/5 546/6/5
f 550/4/5 549/4/5 548/4/5
f 551/4/5 549/4/5 550/4/5
f 552/4/5 549/4/5 551/4/5
f 553/4/5 549/4/5 552/4/5
f 555/4/5 552/4/5 551/4/5
f 556/4/5 552/4/5 555/4/5
f 558/4/5 555/4/5 554/4/5
f 558/4/5 557/4/5 556/4/5
f 558/4/5 556/4/5 555/4/5
f 559/4/5 557/4/5 558/4/5
f 570/2/5 561/2/5 560/2/5
f 571/1/5 562/1/5 561/1/5
f 571/2/5 561/2/5 570/2/5
f 572/8/5 563/8/5 562/8/5
f 572/1/5 562/1/5 571/1/5
f 573/3/5 564/3/5 563/3/5
f 573/8/5 563/8/5 572/8/5
f 574/3/5 564/3/5 573/3/5
f 575/3/5 566/3/5 565/3/5
f 576/8/5 567/8/5 566/8/5
f 576/3/5 566/3/5 575/3/5
f 577/1/5 568/1/5 567/1/5
f 577/8/5 567/8/5 576/8/5
f 578/2/5 569/2/5 568/2/5
f 578/1/5 568/1/5 577/1/5
f 579/2/5 569/2/5 578/2/5
f 580/1/5 574/1/5 573/1/5
f 581/1/5 574/1/5 580/1/5
f 582/1/5 576/1/5 575/1/5
f 583/1/5 576/1/5 582/1/5
f 588/1/5 585/1/5 584/1/5
f 589/3/5 586/3/5 585/3/5
f 589/1/5 585/1/5 588/1/5
f 590/1/5 587/1/5 586/1/5
f 590/3/5 586/3/5 589/3/5
f 591/1/5 587/1/5 590/1/5
f 592/1/5 588/1/5 584/1/5
f 593/1/5 588/1/5 592/1/5
f 594/1/5 587/1/5 591/1/5
f 595/1/5 587/1/5 594/1/5
f 600/1/5 597/1/5 596/1/5
f 600/1/5 599/1/5 598/1/5
f 600/1/5 598/1/5 597/1/5
f 601/1/5 599/1/5 600/1/5
f 604/5/5 603/5/5 602/5/5
f 605/5/5 603/5/5 604/5/5
f 611/5/5 607/5/5 606/5/5
f 612/5/5 607/5/5 611/5/5
f 613/5/5 609/5/5 608/5/5
f 614/5/5 609/5/5 613/5/5
f 616/2/5 611/2/5 610/2/5
f 617/2/5 611/2/5 616/2/5
f 618/2/5 615/2/5 614/2/5
f 619/2/5 615/2/5 618/2/5
f 624/5/5 621/5/5 620/5/5
f 625/5/5 623/5/5 622/5/5
f 626/5/5 624/5/5 620/5/5
f 627/5/5 624/5/5 626/5/5
f 630/5/5 623/5/5 625/5/5
f 631/5/5 623/5/5 630/5/5
f 632/5/5 629/5/5 628/5/5
f 633/5/5 629/5/5 632/5/5
f 640/5/5 635/5/5 634/5/5
f 641/5/5 635/5/5 640/5/5
f 642/5/5 637/5/5 636/5/5
f 643/5/5 637/5/5 642/5/5
f 644/5/5 639/5/5 638/5/5
f 645/5/5 639/5/5 644/5/5
f 650/5/5 647/5/5 646/5/5
f 651/5/5 647/5/5 650/5/5
f 652/5/5 649/5/5 648/5/5
f 653/5/5 649/5/5 652/5/5
f 656/5/5 655/5/5 654/5/5
f 657/5/5 655/5/5 656/5/5
f 658/5/5 655/5/5 657/5/5
f 659/5/5 655/5/5 658/5/5
f 662/5/5 657/5/5 656/5/5
f 663/5/5 657/5/5 662/5/5
f 664/5/5 659/5/5 658/5/5
f 665/5/5 659/5/5 664/5/5
f 669/5/5 661/5/5 660/5/5
f 670/5/5 661/5/5 669/5/5
f 671/5/5 667/5/5 666/5/5
f 672/5/5 667/5/5 671/5/5
f 674/5/5 669/5/5 668/5/5
f 675/5/5 669/5/5 674/5/5
f 676/5/5 673/5/5 672/5/5
f 677/5/5 673/5/5 676/5/5
f 680/5/5 679/5/5 678/5/5
f 681/5/5 679/5/5 680/5/5
f 682/2/6 683/2/6 690/2/6
f 683/1/6 684/1/6 691/1/6
f 690/2/6 683/2/6 691/2/6
f 684/8/6 685/8/6 692/8/6
f 691/1/6 684/1/6 692/1/6
f 692/8/6 685/8/6 693/8/6
f 686/8/6 687/8/6 694/8/6
f 687/1/6 688/1/6 695/1/6
f 694/8/6 687/8/6 695/8/6
f 688/2/6 689/2/6 696/2/6
f 695/1/6 688/1/6 696/1/6
f 696/2/6 689/2/6 697/2/6
f 698/1/6 699/1/6 702/1/6
f 699/3/6 700/3/6 703/3/6
f 702/1/6 699/1/6 703/1/6
f 700/1/6 701/1/6 704/1/6
f 703/3/6 700/3/6 704/3/6
f 704/1/6 701/1/6 705/1/6
f 698/1/6 702/1/6 706/1/6
f 706/1/6 702/1/6 707/1/6
f 705/1/6 701/1/6 708/1/6
f 708/1/6 701/1/6 709/1/6
f 710/5/6 711/5/6 714/5/6
f 714/5/6 711/5/6 715/5/6
f 712/5/6 713/5/6 716/5/6
f 716/5/6 713/5/6 717/5/6
f 718/5/6 719/5/6 722/5/6
f 722/5/6 719/5/6 723/5/6
f 720/5/6 721/5/6 724/5/6
f 724/5/6 721/5/6 725/5/6
f 726/5/6 727/5/6 729/5/6
f 729/5/6 727/5/6 730/5/6
f 728/5/6 729/5/6 733/5/6
f 733/5/6 729/5/6 734/5/6
f 730/5/6 731/5/6 735/5/6
f 735/5/6 731/5/6 736/5/6
f 732/5/6 733/5/6 739/5/6
f 739/5/6 733/5/6 740/5/6
f 736/5/6 737/5/6 741/5/6
f 741/5/6 737/5/6 742/5/6
f 738/5/6 739/5/6 744/5/6
f 744/5/6 739/5/6 745/5/6
f 742/5/6 743/5/6 747/5/6
f 747/5/6 743/5/6 748/5/6
f 745/5/6 746/5/6 749/5/6
f 749/5/6 746/5/6 750/5/6
f 751/5/6 752/5/6 753/5/6
f 753/5/6 752/5/6 754/5/6
f 755/5/6 756/5/6 760/5/6
f 760/5/6 756/5/6 761/5/6
f 757/5/6 758/5/6 762/5/6
f 762/5/6 758/5/6 763/5/6
f 759/5/6 760/5/6 765/5/6
f 765/5/6 760/5/6 766/5/6
f 761/5/6 762/5/6 767/5/6
f 767/5/6 762/5/6 768/5/6
f 764/5/6 765/5/6 770/5/6
f 770/5/6 765/5/6 771/5/6
f 768/5/6 769/5/6 775/5/6
f 775/5/6 769/5/6 776/5/6
f 772/5/6 773/5/6 777/5/6
f 777/5/6 773/5/6 778/5/6
f 774/5/6 775/5/6 779/5/6
f 779/5/6 775/5/6 780/5/6
f 778/5/6 779/5/6 781/5/6
f 781/5/6 779/5/6 782/5/6
f 783/5/6 784/5/6 786/5/6
f 786/5/6 784/5/6 787/5/6
f 785/5/6 786/5/6 789/5/6
f 789/5/6 786/5/6 790/5/6
f 787/5/6 788/5/6 791/5/6
f 791/5/6 788/5/6 792/5/6
f 790/5/6 791/5/6 793/5/6
f 793/5/6 791/5/6 794/5/6
f 795/5/6 796/5/6 797/5/6
f 797/5/6 796/5/6 798/5/6
